{
  "project_info": {
    "project_number": "1081436595513",
    "project_id": "nextale-b819d",
    "storage_bucket": "nextale-b819d.appspot.com"
  },
  "client": [
    {
      "client_info": {
        "mobilesdk_app_id": "1:1081436595513:android:e4552b08212857fe8bb4e8",
        "android_client_info": {
          "package_name": "com.example.nextale_app"
        }
      },
      "oauth_client": [
        {
          "client_id": "1081436595513-k7old0ab4jeuu84eqsbt8u960jd4h35q.apps.googleusercontent.com",
          "client_type": 3
        }
      ],
      "api_key": [
        {
          "current_key": "AIzaSyCYF2fFb-X8L0VXlE5KSCJ_Gt7ynJEM1HM"
        }
      ],
      "services": {
        "appinvite_service": {
          "other_platform_oauth_client": [
            {
              "client_id": "1081436595513-k7old0ab4jeuu84eqsbt8u960jd4h35q.apps.googleusercontent.com",
              "client_type": 3
            }
          ]
        }
      }
    }
  ],
  "configuration_version": "1"
}